[{
		"title": "Atelje 61",
		"description": "Atelje 61 je osnovаn 1961. kаo rаdionicа zа izrаdu umetničke tаpiserije velikog formаtа i spаdа u red jedinstvenih i retkih sličnih institucijа u svetu. Osnovаo ju je slikаr Boško Petrović (1922-1982). Ulogа i glаvni cilj Ateljeа jeste očuvаnje trаdicije izrаde proizvodа od tkаnine. Već početkom šezdesetih godinа rаde se tаpiserije velikih formаtа po nаcrtimа (kаrtonimа) poznаtih jugoslovenskih umetnikа: Stojаnа Ćelićа, Lаzаrа Vujаklije, Mlаdenа Srbinovićа, Milаnа Konjovićа, Ankice Oprešnik i dr. Prve izložbe u zemlji i inostrаnstvu (Skаndinаvijа, Lаtinskа Amerikа, SAD, Evropа) tаpiserije Ateljeа 61 su stekle visokа priznаnjа kojа su upisаlа ovu rаdionicu nа mаpu kulturnih institucijа velike vrednosti. Tokom polа vekа duge istorije Ateljeа 61 u sаrаdnji sа oko 200 umetnikа otkаno je oko 800 tаpiserijа. Prve tkаlje su bile žene koje su zаnаt nаučile od svojih mаjki i bаkа, а dаnаs su to tkаlje koje su o tаpiseriji učile u školi „Bogdаn Šuput’’. U sklopu institucije rаdi i Gаlerijа tаpiserijа „Boško Petrović’’ osnovаnа 1999. U njoj se pored tаpiserijа iz Zbirke „Ateljeа 61’’ održаvаju muzičke i književne večeri. Gаlerijа Boško Petrović smeštenа je u Leopoldovom bаrutnom mаgаzinu, u podnožju Bаstionа sv. Leopoldа.",
        "urlForMoreInfo": "http://novisad.travel/lokacije/atelje-61/",
		"img": "http://novisad.travel/wp-content/uploads/2017/03/Aatelje-61-1-500x240.jpg"
	},
	{
		"title": "Galerija likovne umetnosti poklon zbirka Rajka Mamuzića",
		"description": "Galerija likovne umetnosti-Poklon zbirka Rajka Mamuzića Osnovni fond Zbirke predstavljaju dela srpskih umetnika nastala u prvim decenijama posle Drugog svetskog rata i sadrži slike, skulpture, crteže, grafike, tapiserije i druge umetničke predmete. Vase Stajića 1 \n Tel: 021/520 223 \n E-mail: glurm@open.telekom.rs \n Web: www.galerijamamuzic.org.rs \n Radno vreme: 09.00 – 17.00 \n Ponedeljkom i utorkom ne radi",
		"urlForMoreInfo": "http://novisad.travel/lokacije/poklon-zbirka-rajka-mamuzica/",
		"img": "http://novisad.travel/wp-content/uploads/2017/03/MQ7A5475-500x240.jpg"
	},
	{
		"title": "Spomen zbirka Pavla Beljanskog",
		"description": "Spomen zbirka Pavla Beljanskog je specijalizovana muzejska ustanova koja poseduje, proučava, publikuje i izlaže umetnička dela koja je sakupio Pavle Beljanski, jugoslovenski diplomata i kolekcionar koji je zaveštao srpskom narodu svoju zbirku umetničkih dela. Danas, kolekcija ima 186 dela 37 autora – slika, skulptura i tapiserija sa najznačajnijm delima od početka 20. veka do sedme decenije. \n Trg galerija 2\n Tel: 021 472-99-66, 528 185\n E-mail: kontakt@pavle-beljanski.museum \n Web: www.pavle-beljanski.museum \n Radno vreme: sreda – nedelja: 10.00 – 18.00\n Četvrtak: 13.00 –21.00\n Ponedeljkom i utorkom zatvoreno.\n Četvrtkom ulaz besplatan samo za individualne posete.",
		"urlForMoreInfo": "http://novisad.travel/lokacije/spomen-zbirka-pavla-beljanskog/",
		"img": "http://novisad.travel/wp-content/uploads/2017/03/SZPB-MQ7A5021-CUBE-500x240.jpg"
	},
	{
		"title": "Galerija Matice srpske",
		"description": "Galerija Matice srpske je osnovana 1847. godine u Budimpešti u okviru Matice srpske, najstarijeg kulturnog, književnog i naučnog društva kod Srba. Najbogatijije umetnički muzej srpske umetnosti novijeg doba. Njena stalna postavka hronološki prikazuje odabrana dela iz celokupnog umetničkog fonda koji sadrži oko sedam hiljada umetničkih dela značajnih za nacionalnu istoriju umetnosti novijeg doba i kulturu srpskog naroda u Vojvodini od XVI do XX veka. Po značaju i celovitosti izdvajaju se zbirke srpskog slikarstva, grafike i crteža XVIII i XIX veka.\n Trg galerija 1\n Tel: 021/48 99 000\n E-mail: info@galerijamaticesrpske.rs\n Web: www.galerijamaticesrpske.rs\n Radno vreme: utorak – subota 10.00 – 18.00\n Petak: 12.00 – 20.00\n Nedeljom i ponedeljkom ne radi",
		"urlForMoreInfo": "http://novisad.travel/lokacije/galerija-matice-srpske/",
		"img": "http://novisad.travel/wp-content/uploads/2017/03/Galerija_Matice_srpske_1-500x240.jpg"
	},
	{
		"title": "Prirodnjačka zbirka Zavoda za zaštitu prirode",
		"description": "Prirodnjačkom izložbom dominira lobanja sa kljovama runastog mamuta, izvađena 1947. godine iz korita reke Tise kod Novog Bečeja....",
		"urlForMoreInfo": "http://novisad.travel/lokacije/prirodnjacka-zbirka-pokrajinskog-zavoda-za-zastitu-prirode/",
        "img": "http://novisad.travel/wp-content/uploads/2017/03/Lobanja-runastog-mamuta-Prirodnjacka-izlozba-Foto-Pokrajinski-zavod-za-zastitu-prirode-500x240.jpg",
        "Telefon": "+381 21 66 16 252, +381 21 48 96 301",
        "web": "www,zzps.rs",
        "adresa": "Radni?ka 20a",
        "e-mail": "oliver@zzps.rs",
        "Longitude": "19.847698",
        "Latitude": "45.249042"
	},
	{ 
		"title": "Muzej savremene umetnosti Vojvodine",
		"description": "Postavku čine umetnička dela i istorijski prikaz zbivanja u umetnosti Vojvodine u drugoj polovini 20. veka. Umetnički fond...",
		"urlForMoreInfo": "http://novisad.travel/lokacije/muzej-savremene-umetnosti-vojvodine/",
        "img": "http://novisad.travel/wp-content/uploads/2017/03/099-500x240.jpg",
        "Telefon": "+381 21 525 059, +381 21 420 566",
        "web": "www.muzejvojvodine.org",
        "Adresa": "Dunavska 37",
        "e-mail": "muzejvojvodine3@nscable.net",
        "Longitude": "19.769299",
        "Latitude": "45.242535"
	},
	{
		"title": "Muzej Vojvodine",
		"description": "MUZEJ VOJVODINE se nalazi u Dunavskoj ulici 35-37. Predstavlja najveću muzejsku ustanovu u Vojvodini, sa tradicijom dugom preko...",
		"urlForMoreInfo": "http://novisad.travel/lokacije/muzej-vojvodine/",
        "img": "http://novisad.travel/wp-content/uploads/2017/03/Muzej_Vojvodine_1-500x240.jpg",
        "Telefon": "+381 21 525 059, +381 21 420 566",
        "web": "www.muzejvojvodine.org",
        "Adresa": "Dunavska 37",
        "e-mail": "muzejvojvodine3@nscable.net",
        "Longitude": "19.769299",
        "Latitude": "45.242535"
	},
	{
		"title": "Muzej Grada Novog Sada",
		"description": "Postаvke MUZEJA GRADA NOVOG SADA nаlаze se nа Petrovаrаdinskoj tvrđаvi (zgrаdа Topovnjаče), u Dunаvskoj ulici u Novom Sаdu:...",
		"urlForMoreInfo": "http://novisad.travel/lokacije/muzej-grada-novog-sada/",
        "img": "http://novisad.travel/wp-content/uploads/2017/03/Muzej_grada_Novog_Sada-500x240.jpg",
        "Longitude": "19,862128",
        "Latitude": "45,252198",
        "Telefon": "+381 21 64 33 145",
        "web": "www.museumns.rs",
        "Adresa": "Petrovaradinska tvrdjava 4 ",
        "e-mail": "muzgns@eunet.rs"
	}
]